  0
SECTION
  2
HEADER
  9
$ACADVER
  1
AC1009
  9
$INSBASE
 10
0.0
 20
0.0
 30
0.0
  9
$EXTMIN
 10
0.0
 20
0.0
 30
0.0
  9
$EXTMAX
 10
0.0
 20
0.0
 30
0.0
  0
ENDSEC
  0
SECTION
  2
TABLES
  0
TABLE
  2
VPORT
 70
1
  0
VPORT
  2
*ACTIVE
 70
0
 10
0.0
 20
0.0
 11
1.0
 21
1.0
 12
-5.0
 22
1.0
 13
0.0
 23
0.0
 14
0.1
 24
0.1
 15
0.1
 25
0.1
 16
0.0
 26
0.0
 36
1.0
 17
0.0
 27
0.0
 37
0.0
 40
10.0
 41
1.0
 42
50.0
 43
0.0
 44
0.0
 50
0.0
 51
0.0
 71
0
 72
100
 73
1
 74
1
 75
0
 76
0
 77
0
 78
0
  0
ENDTAB
  0
TABLE
  2
LTYPE
 70
8
  0
LTYPE
  2
CONTINUOUS
 70
0
  3
Solid line
 72
65
 73
0
 40
0.0
  0
LTYPE
  2
DOT
 70
0
  3
. . . . . . .
 72
65
 73
2
 40
0.25
 49
0.0
 49
-0.25
  0
LTYPE
  2
DASHED
 70
0
  3
__ __ __ __ __
 72
65
 73
2
 40
0.8
 49
0.5
 49
-0.3
  0
LTYPE
  2
DASHDOT
 70
0
  3
__ . __ . __ .
 72
65
 73
4
 40
1.0
 49
0.5
 49
-0.25
 49
0.0
 49
-0.25
  0
LTYPE
  2
DIVIDE
 70
0
  3
____ . . ____ . . 
 72
65
 73
6
 40
1.25
 49
0.5
 49
-0.25
 49
0.0
 49
-0.25
 49
0.0
 49
-0.25
  0
LTYPE
  2
BORDER
 70
0
  3
__ __ . __ __ . 
 72
65
 73
6
 40
1.75
 49
0.5
 49
-0.25
 49
0.5
 49
-0.25
 49
0.0
 49
-0.25
  0
LTYPE
  2
HIDDEN
 70
0
  3
__ __ __ __ __
 72
65
 73
2
 40
0.4
 49
0.25
 49
-0.25
  0
LTYPE
  2
CENTER
 70
0
  3
____ _ ____ _ __
 72
65
 73
4
 40
2.0
 49
1.25
 49
-0.25
 49
0.25
 49
-0.25
  0
ENDTAB
  0
TABLE
  2
LAYER
 70
1
  0
LAYER
  2
PYDXF
 70
64
 62
7
  6
continuous
  0
ENDTAB
  0
TABLE
  2
STYLE
 70
1
  0
STYLE
  2
STANDARD
 70
0
 40
0
 41
1.0
 50
0.0
 71
0
 42
1
 3
ARIAL.TTF
 4

  0
ENDTAB
  0
TABLE
  2
VIEW
 70
1
  0
VIEW
  2
BF_TOPVIEW
 70
0
 40
120.0
 10
0.0
 20
0.0
 41
200.0
 11
0.0
 21
0.0
 31
1.0
 12
0.0
 22
0.0
 32
0.0
 42
50.0
 43
0.0
 44
0.0
 50
0.0
 71
0
  0
ENDTAB
  0
ENDSEC
  0
SECTION
  2
BLOCKS
  0
ENDSEC
  0
SECTION
  2
ENTITIES
  0
POLYLINE
  8
0
 70
64
 66
1
 10
0.0
 20
0.0
 30
0.0
 71
120
 72
214
  0
VERTEX
  8
0
 10
-12.0
 20
12.0
 30
0.0
 70
192
  0
VERTEX
  8
0
 10
-21.07689094543457
 20
-11.556009292602539
 30
0.0
 70
192
  0
VERTEX
  8
0
 10
-22.88492202758789
 20
-8.053810119628906
 30
0.0
 70
192
  0
VERTEX
  8
0
 10
3.544342041015625
 20
-4.678492546081543
 30
0.0
 70
192
  0
VERTEX
  8
0
 10
-0.5307903289794922
 20
-1.3095788955688477
 30
0.0
 70
192
  0
VERTEX
  8
0
 10
-13.307336807250977
 20
2.159292221069336
 30
0.0
 70
192
  0
VERTEX
  8
0
 10
-16.30156135559082
 20
4.075027942657471
 30
0.0
 70
192
  0
VERTEX
  8
0
 10
-18.650081634521484
 20
-0.25176048278808594
 30
0.0
 70
192
  0
VERTEX
  8
0
 10
-15.405305862426758
 20
-2.259164810180664
 30
0.0
 70
192
  0
VERTEX
  8
0
 10
-16.55640411376953
 20
-11.616687774658203
 30
0.0
 70
192
  0
VERTEX
  8
0
 10
-4.373064041137695
 20
-8.054037094116211
 30
0.0
 70
192
  0
VERTEX
  8
0
 10
-3.751829147338867
 20
-3.6587889194488525
 30
0.0
 70
192
  0
VERTEX
  8
0
 10
-6.962624549865723
 20
0.8395692110061646
 30
0.0
 70
192
  0
VERTEX
  8
0
 10
12.0
 20
-12.0
 30
0.0
 70
192
  0
VERTEX
  8
0
 10
12.0
 20
-7.927031993865967
 30
0.0
 70
192
  0
VERTEX
  8
0
 10
-6.3058319091796875
 20
12.0
 30
0.0
 70
192
  0
VERTEX
  8
0
 10
7.673386573791504
 20
-6.92503023147583
 30
0.0
 70
192
  0
VERTEX
  8
0
 10
-3.7317800521850586
 20
2.5066287517547607
 30
0.0
 70
192
  0
VERTEX
  8
0
 10
-6.063553810119629
 20
7.223839282989502
 30
0.0
 70
192
  0
VERTEX
  8
0
 10
7.395036697387695
 20
-11.938187599182129
 30
0.0
 70
192
  0
VERTEX
  8
0
 10
-13.676528930664062
 20
8.911251068115234
 30
0.0
 70
192
  0
VERTEX
  8
0
 10
1.3786277770996094
 20
-8.025274276733398
 30
0.0
 70
192
  0
VERTEX
  8
0
 10
-16.4210205078125
 20
-8.114287376403809
 30
0.0
 70
192
  0
VERTEX
  8
0
 10
-17.56264877319336
 20
-6.80266809463501
 30
0.0
 70
192
  0
VERTEX
  8
0
 10
-21.2228946685791
 20
-4.9917778968811035
 30
0.0
 70
192
  0
VERTEX
  8
0
 10
-9.571348190307617
 20
-11.710448265075684
 30
0.0
 70
192
  0
VERTEX
  8
0
 10
-9.521829605102539
 20
-8.079785346984863
 30
0.0
 70
192
  0
VERTEX
  8
0
 10
1.5616788864135742
 20
-11.859886169433594
 30
0.0
 70
192
  0
VERTEX
  8
0
 10
-22.88492202758789
 20
-8.053810119628906
 30
3.5999999046325684
 70
192
  0
VERTEX
  8
0
 10
-21.07689094543457
 20
-11.556009292602539
 30
3.5999999046325684
 70
192
  0
VERTEX
  8
0
 10
-16.55640411376953
 20
-11.616687774658203
 30
3.5999999046325684
 70
192
  0
VERTEX
  8
0
 10
7.395036697387695
 20
-11.938187599182129
 30
3.5999999046325684
 70
192
  0
VERTEX
  8
0
 10
12.0
 20
-12.0
 30
3.5999999046325684
 70
192
  0
VERTEX
  8
0
 10
12.0
 20
-7.927031993865967
 30
3.5999996662139893
 70
192
  0
VERTEX
  8
0
 10
-12.0
 20
12.0
 30
3.5999999046325684
 70
192
  0
VERTEX
  8
0
 10
-13.307336807250977
 20
2.159292221069336
 30
3.5999999046325684
 70
192
  0
VERTEX
  8
0
 10
-21.2228946685791
 20
-4.9917778968811035
 30
3.5999999046325684
 70
192
  0
VERTEX
  8
0
 10
-18.650081634521484
 20
-0.25176048278808594
 30
3.5999996662139893
 70
192
  0
VERTEX
  8
0
 10
1.5616788864135742
 20
-11.859886169433594
 30
3.5999996662139893
 70
192
  0
VERTEX
  8
0
 10
-4.373064041137695
 20
-8.054037094116211
 30
3.5999999046325684
 70
192
  0
VERTEX
  8
0
 10
7.673386573791504
 20
-6.92503023147583
 30
3.5999999046325684
 70
192
  0
VERTEX
  8
0
 10
3.544342041015625
 20
-4.678492546081543
 30
3.5999999046325684
 70
192
  0
VERTEX
  8
0
 10
-3.751829147338867
 20
-3.6587889194488525
 30
3.5999999046325684
 70
192
  0
VERTEX
  8
0
 10
-16.4210205078125
 20
-8.114287376403809
 30
3.5999999046325684
 70
192
  0
VERTEX
  8
0
 10
-17.56264877319336
 20
-6.80266809463501
 30
3.5999999046325684
 70
192
  0
VERTEX
  8
0
 10
-6.3058319091796875
 20
12.0
 30
3.5999996662139893
 70
192
  0
VERTEX
  8
0
 10
-16.30156135559082
 20
4.075027942657471
 30
3.5999996662139893
 70
192
  0
VERTEX
  8
0
 10
-6.962624549865723
 20
0.8395692110061646
 30
3.5999999046325684
 70
192
  0
VERTEX
  8
0
 10
-3.7317800521850586
 20
2.5066287517547607
 30
3.5999999046325684
 70
192
  0
VERTEX
  8
0
 10
-6.063553810119629
 20
7.223839282989502
 30
3.5999999046325684
 70
192
  0
VERTEX
  8
0
 10
-13.676528930664062
 20
8.911251068115234
 30
3.5999999046325684
 70
192
  0
VERTEX
  8
0
 10
-15.405305862426758
 20
-2.259164810180664
 30
3.5999999046325684
 70
192
  0
VERTEX
  8
0
 10
-9.571348190307617
 20
-11.710448265075684
 30
3.5999996662139893
 70
192
  0
VERTEX
  8
0
 10
-9.521829605102539
 20
-8.079785346984863
 30
3.5999996662139893
 70
192
  0
VERTEX
  8
0
 10
-0.5307903289794922
 20
-1.3095788955688477
 30
3.5999996662139893
 70
192
  0
VERTEX
  8
0
 10
1.3786277770996094
 20
-8.025274276733398
 30
3.5999996662139893
 70
192
  0
VERTEX
  8
0
 10
-22.88492202758789
 20
-8.053810119628906
 30
6.300000190734863
 70
192
  0
VERTEX
  8
0
 10
7.395036697387695
 20
-11.938187599182129
 30
6.300000190734863
 70
192
  0
VERTEX
  8
0
 10
12.0
 20
-12.0
 30
6.300000190734863
 70
192
  0
VERTEX
  8
0
 10
-6.063553810119629
 20
7.223839282989502
 30
6.300000190734863
 70
192
  0
VERTEX
  8
0
 10
-6.3058319091796875
 20
12.0
 30
6.299999237060547
 70
192
  0
VERTEX
  8
0
 10
-12.0
 20
12.0
 30
6.300000190734863
 70
192
  0
VERTEX
  8
0
 10
-16.30156135559082
 20
4.075027942657471
 30
6.299999237060547
 70
192
  0
VERTEX
  8
0
 10
-6.962624549865723
 20
0.8395692110061646
 30
6.300000190734863
 70
192
  0
VERTEX
  8
0
 10
-21.2228946685791
 20
-4.9917778968811035
 30
6.300000190734863
 70
192
  0
VERTEX
  8
0
 10
-15.405305862426758
 20
-2.259164810180664
 30
6.300000190734863
 70
192
  0
VERTEX
  8
0
 10
-18.650081634521484
 20
-0.2517603933811188
 30
6.299999237060547
 70
192
  0
VERTEX
  8
0
 10
-16.4210205078125
 20
-8.114287376403809
 30
6.300000190734863
 70
192
  0
VERTEX
  8
0
 10
-9.521829605102539
 20
-8.079785346984863
 30
6.299999237060547
 70
192
  0
VERTEX
  8
0
 10
-0.5307902693748474
 20
-1.3095788955688477
 30
6.299999237060547
 70
192
  0
VERTEX
  8
0
 10
1.378627896308899
 20
-8.025274276733398
 30
6.299999237060547
 70
192
  0
VERTEX
  8
0
 10
3.544342041015625
 20
-4.678492546081543
 30
6.300000190734863
 70
192
  0
VERTEX
  8
0
 10
-21.07689094543457
 20
-11.556009292602539
 30
6.300000190734863
 70
192
  0
VERTEX
  8
0
 10
-16.55640411376953
 20
-11.616687774658203
 30
6.300000190734863
 70
192
  0
VERTEX
  8
0
 10
12.0
 20
-7.927031993865967
 30
6.299999237060547
 70
192
  0
VERTEX
  8
0
 10
-13.676528930664062
 20
8.911251068115234
 30
6.300000190734863
 70
192
  0
VERTEX
  8
0
 10
-3.7317800521850586
 20
2.5066287517547607
 30
6.300000190734863
 70
192
  0
VERTEX
  8
0
 10
-17.56264877319336
 20
-6.80266809463501
 30
6.300000190734863
 70
192
  0
VERTEX
  8
0
 10
-13.307336807250977
 20
2.159292221069336
 30
6.300000190734863
 70
192
  0
VERTEX
  8
0
 10
-9.571348190307617
 20
-11.710448265075684
 30
6.300000190734863
 70
192
  0
VERTEX
  8
0
 10
1.5616787672042847
 20
-11.859886169433594
 30
6.299999237060547
 70
192
  0
VERTEX
  8
0
 10
-4.373064041137695
 20
-8.054037094116211
 30
6.300000190734863
 70
192
  0
VERTEX
  8
0
 10
7.673386573791504
 20
-6.92503023147583
 30
6.300000190734863
 70
192
  0
VERTEX
  8
0
 10
-3.751829147338867
 20
-3.6587889194488525
 30
6.300000190734863
 70
192
  0
VERTEX
  8
0
 10
-22.88492202758789
 20
-8.053810119628906
 30
9.0
 70
192
  0
VERTEX
  8
0
 10
-21.07689094543457
 20
-11.556009292602539
 30
9.0
 70
192
  0
VERTEX
  8
0
 10
-16.55640411376953
 20
-11.616687774658203
 30
9.0
 70
192
  0
VERTEX
  8
0
 10
-17.56264877319336
 20
-6.80266809463501
 30
9.0
 70
192
  0
VERTEX
  8
0
 10
-21.2228946685791
 20
-4.9917778968811035
 30
9.0
 70
192
  0
VERTEX
  8
0
 10
12.0
 20
-7.927031517028809
 30
8.999999046325684
 70
192
  0
VERTEX
  8
0
 10
-13.676528930664062
 20
8.911251068115234
 30
9.0
 70
192
  0
VERTEX
  8
0
 10
-6.3058319091796875
 20
12.0
 30
8.999999046325684
 70
192
  0
VERTEX
  8
0
 10
-12.0
 20
12.0
 30
9.0
 70
192
  0
VERTEX
  8
0
 10
-3.751829147338867
 20
-3.6587889194488525
 30
9.0
 70
192
  0
VERTEX
  8
0
 10
-0.5307903289794922
 20
-1.3095788955688477
 30
9.0
 70
192
  0
VERTEX
  8
0
 10
-16.30156135559082
 20
4.075027942657471
 30
8.999999046325684
 70
192
  0
VERTEX
  8
0
 10
-6.962625026702881
 20
0.8395692110061646
 30
9.0
 70
192
  0
VERTEX
  8
0
 10
-3.7317802906036377
 20
2.5066287517547607
 30
9.0
 70
192
  0
VERTEX
  8
0
 10
-6.063554286956787
 20
7.223839282989502
 30
9.0
 70
192
  0
VERTEX
  8
0
 10
-18.650081634521484
 20
-0.25176048278808594
 30
9.0
 70
192
  0
VERTEX
  8
0
 10
-15.405305862426758
 20
-2.259164810180664
 30
9.0
 70
192
  0
VERTEX
  8
0
 10
-13.307336807250977
 20
2.159292221069336
 30
9.0
 70
192
  0
VERTEX
  8
0
 10
-16.4210205078125
 20
-8.114287376403809
 30
9.0
 70
192
  0
VERTEX
  8
0
 10
-9.521829605102539
 20
-8.079785346984863
 30
9.0
 70
192
  0
VERTEX
  8
0
 10
-9.571348190307617
 20
-11.710448265075684
 30
9.0
 70
192
  0
VERTEX
  8
0
 10
1.5616788864135742
 20
-11.859886169433594
 30
8.999999046325684
 70
192
  0
VERTEX
  8
0
 10
1.3786277770996094
 20
-8.025274276733398
 30
9.0
 70
192
  0
VERTEX
  8
0
 10
7.395036697387695
 20
-11.938187599182129
 30
9.0
 70
192
  0
VERTEX
  8
0
 10
7.673386573791504
 20
-6.92503023147583
 30
9.0
 70
192
  0
VERTEX
  8
0
 10
3.544342041015625
 20
-4.678492546081543
 30
9.0
 70
192
  0
VERTEX
  8
0
 10
-4.373064041137695
 20
-8.054037094116211
 30
9.0
 70
192
  0
VERTEX
  8
0
 10
12.0
 20
-12.0
 30
9.0
 70
192
  0
VERTEX
  8
0
 10
7.67338752746582
 20
-6.925029277801514
 30
13.0
 70
192
  0
VERTEX
  8
0
 10
7.395037651062012
 20
-11.938187599182129
 30
13.0
 70
192
  0
VERTEX
  8
0
 10
12.0
 20
-12.0
 30
13.0
 70
192
  0
VERTEX
  8
0
 10
12.0
 20
-7.92703104019165
 30
12.999999046325684
 70
192
  0
VERTEX
  8
0
 10
-13.676528930664062
 20
8.911251068115234
 30
13.0
 70
192
  0
VERTEX
  8
0
 10
-6.063553333282471
 20
7.223840236663818
 30
13.0
 70
192
  0
VERTEX
  8
0
 10
-6.305831432342529
 20
12.0
 30
12.999999046325684
 70
192
  0
VERTEX
  8
0
 10
-12.0
 20
12.0
 30
13.0
 70
192
  0
VERTEX
  8
0
 10
0.0
 20
0.0
 30
0.0
 70
128
 71
23
 72
24
 73
2
  0
VERTEX
  8
0
 10
0.0
 20
0.0
 30
0.0
 70
128
 71
17
 72
20
 73
14
 74
15
  0
VERTEX
  8
0
 10
0.0
 20
0.0
 30
0.0
 70
128
 71
16
 72
1
 73
21
 74
19
  0
VERTEX
  8
0
 10
0.0
 20
0.0
 30
0.0
 70
128
 71
18
 72
13
 73
12
 74
5
  0
VERTEX
  8
0
 10
0.0
 20
0.0
 30
0.0
 70
128
 71
19
 72
21
 73
6
  0
VERTEX
  8
0
 10
0.0
 20
0.0
 30
0.0
 70
128
 71
25
 72
24
 73
9
 74
8
  0
VERTEX
  8
0
 10
0.0
 20
0.0
 30
0.0
 70
128
 71
8
 72
9
 73
6
 74
7
  0
VERTEX
  8
0
 10
0.0
 20
0.0
 30
0.0
 70
128
 71
23
 72
10
 73
26
 74
27
  0
VERTEX
  8
0
 10
0.0
 20
0.0
 30
0.0
 70
128
 71
28
 72
22
 73
11
  0
VERTEX
  8
0
 10
0.0
 20
0.0
 30
0.0
 70
128
 71
17
 72
22
 73
20
  0
VERTEX
  8
0
 10
0.0
 20
0.0
 30
0.0
 70
128
 71
12
 72
11
 73
22
  0
VERTEX
  8
0
 10
0.0
 20
0.0
 30
0.0
 70
128
 71
44
 72
45
 73
30
  0
VERTEX
  8
0
 10
0.0
 20
0.0
 30
0.0
 70
128
 71
2
 72
30
 73
29
 74
3
  0
VERTEX
  8
0
 10
0.0
 20
0.0
 30
0.0
 70
128
 71
10
 72
31
 73
30
 74
2
  0
VERTEX
  8
0
 10
0.0
 20
0.0
 30
0.0
 70
128
 71
23
 72
44
 73
31
 74
10
  0
VERTEX
  8
0
 10
0.0
 20
0.0
 30
0.0
 70
128
 71
24
 72
45
 73
44
 74
23
  0
VERTEX
  8
0
 10
0.0
 20
0.0
 30
0.0
 70
128
 71
25
 72
37
 73
45
 74
24
  0
VERTEX
  8
0
 10
0.0
 20
0.0
 30
0.0
 70
128
 71
3
 72
29
 73
37
 74
25
  0
VERTEX
  8
0
 10
0.0
 20
0.0
 30
0.0
 70
128
 71
41
 72
32
 73
33
 74
34
  0
VERTEX
  8
0
 10
0.0
 20
0.0
 30
0.0
 70
128
 71
20
 72
32
 73
41
 74
17
  0
VERTEX
  8
0
 10
0.0
 20
0.0
 30
0.0
 70
128
 71
14
 72
33
 73
32
 74
20
  0
VERTEX
  8
0
 10
0.0
 20
0.0
 30
0.0
 70
128
 71
15
 72
34
 73
33
 74
14
  0
VERTEX
  8
0
 10
0.0
 20
0.0
 30
0.0
 70
128
 71
17
 72
41
 73
34
 74
15
  0
VERTEX
  8
0
 10
0.0
 20
0.0
 30
0.0
 70
128
 71
51
 72
50
 73
46
 74
35
  0
VERTEX
  8
0
 10
0.0
 20
0.0
 30
0.0
 70
128
 71
19
 72
50
 73
51
 74
21
  0
VERTEX
  8
0
 10
0.0
 20
0.0
 30
0.0
 70
128
 71
16
 72
46
 73
50
 74
19
  0
VERTEX
  8
0
 10
0.0
 20
0.0
 30
0.0
 70
128
 71
1
 72
35
 73
46
 74
16
  0
VERTEX
  8
0
 10
0.0
 20
0.0
 30
0.0
 70
128
 71
35
 72
1
 73
21
 74
51
  0
VERTEX
  8
0
 10
0.0
 20
0.0
 30
0.0
 70
128
 71
49
 72
48
 73
43
 74
55
  0
VERTEX
  8
0
 10
0.0
 20
0.0
 30
0.0
 70
128
 71
13
 72
48
 73
49
 74
18
  0
VERTEX
  8
0
 10
0.0
 20
0.0
 30
0.0
 70
128
 71
12
 72
43
 73
48
 74
13
  0
VERTEX
  8
0
 10
0.0
 20
0.0
 30
0.0
 70
128
 71
5
 72
55
 73
43
 74
12
  0
VERTEX
  8
0
 10
0.0
 20
0.0
 30
0.0
 70
128
 71
18
 72
49
 73
55
 74
5
  0
VERTEX
  8
0
 10
0.0
 20
0.0
 30
0.0
 70
128
 71
50
 72
51
 73
36
  0
VERTEX
  8
0
 10
0.0
 20
0.0
 30
0.0
 70
128
 71
6
 72
36
 73
47
 74
7
  0
VERTEX
  8
0
 10
0.0
 20
0.0
 30
0.0
 70
128
 71
13
 72
48
 73
36
 74
6
  0
VERTEX
  8
0
 10
0.0
 20
0.0
 30
0.0
 70
128
 71
19
 72
50
 73
49
 74
18
  0
VERTEX
  8
0
 10
0.0
 20
0.0
 30
0.0
 70
128
 71
7
 72
47
 73
51
 74
21
  0
VERTEX
  8
0
 10
0.0
 20
0.0
 30
0.0
 70
128
 71
9
 72
52
 73
45
 74
24
  0
VERTEX
  8
0
 10
0.0
 20
0.0
 30
0.0
 70
128
 71
8
 72
38
 73
52
 74
9
  0
VERTEX
  8
0
 10
0.0
 20
0.0
 30
0.0
 70
128
 71
25
 72
37
 73
38
 74
8
  0
VERTEX
  8
0
 10
0.0
 20
0.0
 30
0.0
 70
128
 71
38
 72
52
 73
36
 74
47
  0
VERTEX
  8
0
 10
0.0
 20
0.0
 30
0.0
 70
128
 71
6
 72
36
 73
52
 74
9
  0
VERTEX
  8
0
 10
0.0
 20
0.0
 30
0.0
 70
128
 71
8
 72
38
 73
47
 74
7
  0
VERTEX
  8
0
 10
0.0
 20
0.0
 30
0.0
 70
128
 71
44
 72
31
 73
53
 74
54
  0
VERTEX
  8
0
 10
0.0
 20
0.0
 30
0.0
 70
128
 71
26
 72
53
 73
31
 74
10
  0
VERTEX
  8
0
 10
0.0
 20
0.0
 30
0.0
 70
128
 71
27
 72
54
 73
53
 74
26
  0
VERTEX
  8
0
 10
0.0
 20
0.0
 30
0.0
 70
128
 71
23
 72
44
 73
54
 74
27
  0
VERTEX
  8
0
 10
0.0
 20
0.0
 30
0.0
 70
128
 71
39
 72
56
 73
40
  0
VERTEX
  8
0
 10
0.0
 20
0.0
 30
0.0
 70
128
 71
28
 72
39
 73
53
 74
26
  0
VERTEX
  8
0
 10
0.0
 20
0.0
 30
0.0
 70
128
 71
22
 72
56
 73
39
 74
28
  0
VERTEX
  8
0
 10
0.0
 20
0.0
 30
0.0
 70
128
 71
11
 72
40
 73
56
 74
22
  0
VERTEX
  8
0
 10
0.0
 20
0.0
 30
0.0
 70
128
 71
27
 72
54
 73
40
 74
11
  0
VERTEX
  8
0
 10
0.0
 20
0.0
 30
0.0
 70
128
 71
41
 72
56
 73
32
  0
VERTEX
  8
0
 10
0.0
 20
0.0
 30
0.0
 70
128
 71
20
 72
32
 73
39
 74
28
  0
VERTEX
  8
0
 10
0.0
 20
0.0
 30
0.0
 70
128
 71
4
 72
42
 73
41
 74
17
  0
VERTEX
  8
0
 10
0.0
 20
0.0
 30
0.0
 70
128
 71
22
 72
56
 73
42
 74
4
  0
VERTEX
  8
0
 10
0.0
 20
0.0
 30
0.0
 70
128
 71
43
 72
40
 73
56
  0
VERTEX
  8
0
 10
0.0
 20
0.0
 30
0.0
 70
128
 71
11
 72
40
 73
43
 74
12
  0
VERTEX
  8
0
 10
0.0
 20
0.0
 30
0.0
 70
128
 71
5
 72
55
 73
42
 74
4
  0
VERTEX
  8
0
 10
0.0
 20
0.0
 30
0.0
 70
128
 71
68
 72
78
 73
73
  0
VERTEX
  8
0
 10
0.0
 20
0.0
 30
0.0
 70
128
 71
30
 72
73
 73
57
 74
29
  0
VERTEX
  8
0
 10
0.0
 20
0.0
 30
0.0
 70
128
 71
31
 72
74
 73
73
 74
30
  0
VERTEX
  8
0
 10
0.0
 20
0.0
 30
0.0
 70
128
 71
44
 72
68
 73
74
 74
31
  0
VERTEX
  8
0
 10
0.0
 20
0.0
 30
0.0
 70
128
 71
45
 72
78
 73
68
 74
44
  0
VERTEX
  8
0
 10
0.0
 20
0.0
 30
0.0
 70
128
 71
37
 72
65
 73
78
 74
45
  0
VERTEX
  8
0
 10
0.0
 20
0.0
 30
0.0
 70
128
 71
29
 72
57
 73
65
 74
37
  0
VERTEX
  8
0
 10
0.0
 20
0.0
 30
0.0
 70
128
 71
83
 72
58
 73
59
 74
75
  0
VERTEX
  8
0
 10
0.0
 20
0.0
 30
0.0
 70
128
 71
32
 72
58
 73
83
 74
41
  0
VERTEX
  8
0
 10
0.0
 20
0.0
 30
0.0
 70
128
 71
33
 72
59
 73
58
 74
32
  0
VERTEX
  8
0
 10
0.0
 20
0.0
 30
0.0
 70
128
 71
34
 72
75
 73
59
 74
33
  0
VERTEX
  8
0
 10
0.0
 20
0.0
 30
0.0
 70
128
 71
41
 72
83
 73
75
 74
34
  0
VERTEX
  8
0
 10
0.0
 20
0.0
 30
0.0
 70
128
 71
76
 72
60
 73
61
 74
62
  0
VERTEX
  8
0
 10
0.0
 20
0.0
 30
0.0
 70
128
 71
50
 72
60
 73
76
 74
51
  0
VERTEX
  8
0
 10
0.0
 20
0.0
 30
0.0
 70
128
 71
46
 72
61
 73
60
 74
50
  0
VERTEX
  8
0
 10
0.0
 20
0.0
 30
0.0
 70
128
 71
35
 72
62
 73
61
 74
46
  0
VERTEX
  8
0
 10
0.0
 20
0.0
 30
0.0
 70
128
 71
51
 72
76
 73
62
 74
35
  0
VERTEX
  8
0
 10
0.0
 20
0.0
 30
0.0
 70
128
 71
77
 72
64
 73
84
 74
70
  0
VERTEX
  8
0
 10
0.0
 20
0.0
 30
0.0
 70
128
 71
48
 72
64
 73
77
 74
49
  0
VERTEX
  8
0
 10
0.0
 20
0.0
 30
0.0
 70
128
 71
43
 72
84
 73
64
 74
48
  0
VERTEX
  8
0
 10
0.0
 20
0.0
 30
0.0
 70
128
 71
55
 72
70
 73
84
 74
43
  0
VERTEX
  8
0
 10
0.0
 20
0.0
 30
0.0
 70
128
 71
49
 72
77
 73
70
 74
55
  0
VERTEX
  8
0
 10
0.0
 20
0.0
 30
0.0
 70
128
 71
60
 72
76
 73
79
  0
VERTEX
  8
0
 10
0.0
 20
0.0
 30
0.0
 70
128
 71
36
 72
79
 73
63
 74
47
  0
VERTEX
  8
0
 10
0.0
 20
0.0
 30
0.0
 70
128
 71
48
 72
64
 73
79
 74
36
  0
VERTEX
  8
0
 10
0.0
 20
0.0
 30
0.0
 70
128
 71
50
 72
60
 73
77
 74
49
  0
VERTEX
  8
0
 10
0.0
 20
0.0
 30
0.0
 70
128
 71
47
 72
63
 73
76
 74
51
  0
VERTEX
  8
0
 10
0.0
 20
0.0
 30
0.0
 70
128
 71
52
 72
66
 73
78
 74
45
  0
VERTEX
  8
0
 10
0.0
 20
0.0
 30
0.0
 70
128
 71
38
 72
67
 73
66
 74
52
  0
VERTEX
  8
0
 10
0.0
 20
0.0
 30
0.0
 70
128
 71
37
 72
65
 73
67
 74
38
  0
VERTEX
  8
0
 10
0.0
 20
0.0
 30
0.0
 70
128
 71
67
 72
66
 73
79
 74
63
  0
VERTEX
  8
0
 10
0.0
 20
0.0
 30
0.0
 70
128
 71
36
 72
79
 73
66
 74
52
  0
VERTEX
  8
0
 10
0.0
 20
0.0
 30
0.0
 70
128
 71
38
 72
67
 73
63
 74
47
  0
VERTEX
  8
0
 10
0.0
 20
0.0
 30
0.0
 70
128
 71
68
 72
74
 73
80
 74
69
  0
VERTEX
  8
0
 10
0.0
 20
0.0
 30
0.0
 70
128
 71
53
 72
80
 73
74
 74
31
  0
VERTEX
  8
0
 10
0.0
 20
0.0
 30
0.0
 70
128
 71
54
 72
69
 73
80
 74
53
  0
VERTEX
  8
0
 10
0.0
 20
0.0
 30
0.0
 70
128
 71
44
 72
68
 73
69
 74
54
  0
VERTEX
  8
0
 10
0.0
 20
0.0
 30
0.0
 70
128
 71
81
 72
71
 73
82
  0
VERTEX
  8
0
 10
0.0
 20
0.0
 30
0.0
 70
128
 71
39
 72
81
 73
80
 74
53
  0
VERTEX
  8
0
 10
0.0
 20
0.0
 30
0.0
 70
128
 71
56
 72
71
 73
81
 74
39
  0
VERTEX
  8
0
 10
0.0
 20
0.0
 30
0.0
 70
128
 71
40
 72
82
 73
71
 74
56
  0
VERTEX
  8
0
 10
0.0
 20
0.0
 30
0.0
 70
128
 71
54
 72
69
 73
82
 74
40
  0
VERTEX
  8
0
 10
0.0
 20
0.0
 30
0.0
 70
128
 71
83
 72
71
 73
58
  0
VERTEX
  8
0
 10
0.0
 20
0.0
 30
0.0
 70
128
 71
32
 72
58
 73
81
 74
39
  0
VERTEX
  8
0
 10
0.0
 20
0.0
 30
0.0
 70
128
 71
42
 72
72
 73
83
 74
41
  0
VERTEX
  8
0
 10
0.0
 20
0.0
 30
0.0
 70
128
 71
56
 72
71
 73
72
 74
42
  0
VERTEX
  8
0
 10
0.0
 20
0.0
 30
0.0
 70
128
 71
84
 72
82
 73
71
  0
VERTEX
  8
0
 10
0.0
 20
0.0
 30
0.0
 70
128
 71
40
 72
82
 73
84
 74
43
  0
VERTEX
  8
0
 10
0.0
 20
0.0
 30
0.0
 70
128
 71
55
 72
70
 73
72
 74
42
  0
VERTEX
  8
0
 10
0.0
 20
0.0
 30
0.0
 70
128
 71
103
 72
88
 73
86
  0
VERTEX
  8
0
 10
0.0
 20
0.0
 30
0.0
 70
128
 71
73
 72
86
 73
85
 74
57
  0
VERTEX
  8
0
 10
0.0
 20
0.0
 30
0.0
 70
128
 71
74
 72
87
 73
86
 74
73
  0
VERTEX
  8
0
 10
0.0
 20
0.0
 30
0.0
 70
128
 71
68
 72
103
 73
87
 74
74
  0
VERTEX
  8
0
 10
0.0
 20
0.0
 30
0.0
 70
128
 71
78
 72
88
 73
103
 74
68
  0
VERTEX
  8
0
 10
0.0
 20
0.0
 30
0.0
 70
128
 71
65
 72
89
 73
88
 74
78
  0
VERTEX
  8
0
 10
0.0
 20
0.0
 30
0.0
 70
128
 71
57
 72
85
 73
89
 74
65
  0
VERTEX
  8
0
 10
0.0
 20
0.0
 30
0.0
 70
128
 71
109
 72
108
 73
112
 74
90
  0
VERTEX
  8
0
 10
0.0
 20
0.0
 30
0.0
 70
128
 71
58
 72
108
 73
109
 74
83
  0
VERTEX
  8
0
 10
0.0
 20
0.0
 30
0.0
 70
128
 71
59
 72
112
 73
108
 74
58
  0
VERTEX
  8
0
 10
0.0
 20
0.0
 30
0.0
 70
128
 71
75
 72
90
 73
112
 74
59
  0
VERTEX
  8
0
 10
0.0
 20
0.0
 30
0.0
 70
128
 71
83
 72
109
 73
90
 74
75
  0
VERTEX
  8
0
 10
0.0
 20
0.0
 30
0.0
 70
128
 71
91
 72
99
 73
92
 74
93
  0
VERTEX
  8
0
 10
0.0
 20
0.0
 30
0.0
 70
128
 71
60
 72
99
 73
91
 74
76
  0
VERTEX
  8
0
 10
0.0
 20
0.0
 30
0.0
 70
128
 71
61
 72
92
 73
99
 74
60
  0
VERTEX
  8
0
 10
0.0
 20
0.0
 30
0.0
 70
128
 71
62
 72
93
 73
92
 74
61
  0
VERTEX
  8
0
 10
0.0
 20
0.0
 30
0.0
 70
128
 71
76
 72
91
 73
93
 74
62
  0
VERTEX
  8
0
 10
0.0
 20
0.0
 30
0.0
 70
128
 71
98
 72
97
 73
94
 74
95
  0
VERTEX
  8
0
 10
0.0
 20
0.0
 30
0.0
 70
128
 71
64
 72
97
 73
98
 74
77
  0
VERTEX
  8
0
 10
0.0
 20
0.0
 30
0.0
 70
128
 71
84
 72
94
 73
97
 74
64
  0
VERTEX
  8
0
 10
0.0
 20
0.0
 30
0.0
 70
128
 71
70
 72
95
 73
94
 74
84
  0
VERTEX
  8
0
 10
0.0
 20
0.0
 30
0.0
 70
128
 71
77
 72
98
 73
95
 74
70
  0
VERTEX
  8
0
 10
0.0
 20
0.0
 30
0.0
 70
128
 71
99
 72
91
 73
102
  0
VERTEX
  8
0
 10
0.0
 20
0.0
 30
0.0
 70
128
 71
79
 72
102
 73
96
 74
63
  0
VERTEX
  8
0
 10
0.0
 20
0.0
 30
0.0
 70
128
 71
64
 72
97
 73
102
 74
79
  0
VERTEX
  8
0
 10
0.0
 20
0.0
 30
0.0
 70
128
 71
60
 72
99
 73
98
 74
77
  0
VERTEX
  8
0
 10
0.0
 20
0.0
 30
0.0
 70
128
 71
63
 72
96
 73
91
 74
76
  0
VERTEX
  8
0
 10
0.0
 20
0.0
 30
0.0
 70
128
 71
89
 72
88
 73
101
 74
100
  0
VERTEX
  8
0
 10
0.0
 20
0.0
 30
0.0
 70
128
 71
66
 72
101
 73
88
 74
78
  0
VERTEX
  8
0
 10
0.0
 20
0.0
 30
0.0
 70
128
 71
67
 72
100
 73
101
 74
66
  0
VERTEX
  8
0
 10
0.0
 20
0.0
 30
0.0
 70
128
 71
65
 72
89
 73
100
 74
67
  0
VERTEX
  8
0
 10
0.0
 20
0.0
 30
0.0
 70
128
 71
100
 72
101
 73
102
 74
96
  0
VERTEX
  8
0
 10
0.0
 20
0.0
 30
0.0
 70
128
 71
79
 72
102
 73
101
 74
66
  0
VERTEX
  8
0
 10
0.0
 20
0.0
 30
0.0
 70
128
 71
67
 72
100
 73
96
 74
63
  0
VERTEX
  8
0
 10
0.0
 20
0.0
 30
0.0
 70
128
 71
69
 72
104
 73
105
 74
80
  0
VERTEX
  8
0
 10
0.0
 20
0.0
 30
0.0
 70
128
 71
106
 72
107
 73
111
  0
VERTEX
  8
0
 10
0.0
 20
0.0
 30
0.0
 70
128
 71
81
 72
106
 73
105
 74
80
  0
VERTEX
  8
0
 10
0.0
 20
0.0
 30
0.0
 70
128
 71
71
 72
107
 73
106
 74
81
  0
VERTEX
  8
0
 10
0.0
 20
0.0
 30
0.0
 70
128
 71
82
 72
111
 73
107
 74
71
  0
VERTEX
  8
0
 10
0.0
 20
0.0
 30
0.0
 70
128
 71
69
 72
104
 73
111
 74
82
  0
VERTEX
  8
0
 10
0.0
 20
0.0
 30
0.0
 70
128
 71
109
 72
107
 73
108
  0
VERTEX
  8
0
 10
0.0
 20
0.0
 30
0.0
 70
128
 71
58
 72
108
 73
106
 74
81
  0
VERTEX
  8
0
 10
0.0
 20
0.0
 30
0.0
 70
128
 71
72
 72
110
 73
109
 74
83
  0
VERTEX
  8
0
 10
0.0
 20
0.0
 30
0.0
 70
128
 71
71
 72
107
 73
110
 74
72
  0
VERTEX
  8
0
 10
0.0
 20
0.0
 30
0.0
 70
128
 71
94
 72
111
 73
107
  0
VERTEX
  8
0
 10
0.0
 20
0.0
 30
0.0
 70
128
 71
82
 72
111
 73
94
 74
84
  0
VERTEX
  8
0
 10
0.0
 20
0.0
 30
0.0
 70
128
 71
70
 72
95
 73
110
 74
72
  0
VERTEX
  8
0
 10
0.0
 20
0.0
 30
0.0
 70
128
 71
113
 72
114
 73
115
 74
116
  0
VERTEX
  8
0
 10
0.0
 20
0.0
 30
0.0
 70
128
 71
108
 72
114
 73
113
 74
109
  0
VERTEX
  8
0
 10
0.0
 20
0.0
 30
0.0
 70
128
 71
112
 72
115
 73
114
 74
108
  0
VERTEX
  8
0
 10
0.0
 20
0.0
 30
0.0
 70
128
 71
90
 72
116
 73
115
 74
112
  0
VERTEX
  8
0
 10
0.0
 20
0.0
 30
0.0
 70
128
 71
109
 72
113
 73
116
 74
90
  0
VERTEX
  8
0
 10
0.0
 20
0.0
 30
0.0
 70
128
 71
117
 72
118
 73
119
 74
120
  0
VERTEX
  8
0
 10
0.0
 20
0.0
 30
0.0
 70
128
 71
99
 72
118
 73
117
 74
91
  0
VERTEX
  8
0
 10
0.0
 20
0.0
 30
0.0
 70
128
 71
92
 72
119
 73
118
 74
99
  0
VERTEX
  8
0
 10
0.0
 20
0.0
 30
0.0
 70
128
 71
93
 72
120
 73
119
 74
92
  0
VERTEX
  8
0
 10
0.0
 20
0.0
 30
0.0
 70
128
 71
91
 72
117
 73
120
 74
93
  0
VERTEX
  8
0
 10
0.0
 20
0.0
 30
0.0
 70
128
 71
25
 72
3
 73
24
  0
VERTEX
  8
0
 10
0.0
 20
0.0
 30
0.0
 70
128
 71
3
 72
2
 73
24
  0
VERTEX
  8
0
 10
0.0
 20
0.0
 30
0.0
 70
128
 71
2
 72
10
 73
23
  0
VERTEX
  8
0
 10
0.0
 20
0.0
 30
0.0
 70
128
 71
21
 72
7
 73
6
  0
VERTEX
  8
0
 10
0.0
 20
0.0
 30
0.0
 70
128
 71
6
 72
13
 73
19
  0
VERTEX
  8
0
 10
0.0
 20
0.0
 30
0.0
 70
128
 71
13
 72
18
 73
19
  0
VERTEX
  8
0
 10
0.0
 20
0.0
 30
0.0
 70
128
 71
11
 72
27
 73
26
  0
VERTEX
  8
0
 10
0.0
 20
0.0
 30
0.0
 70
128
 71
26
 72
28
 73
11
  0
VERTEX
  8
0
 10
0.0
 20
0.0
 30
0.0
 70
128
 71
4
 72
22
 73
17
  0
VERTEX
  8
0
 10
0.0
 20
0.0
 30
0.0
 70
128
 71
22
 72
28
 73
20
  0
VERTEX
  8
0
 10
0.0
 20
0.0
 30
0.0
 70
128
 71
4
 72
5
 73
22
  0
VERTEX
  8
0
 10
0.0
 20
0.0
 30
0.0
 70
128
 71
5
 72
12
 73
22
  0
VERTEX
  8
0
 10
0.0
 20
0.0
 30
0.0
 70
128
 71
37
 72
29
 73
45
  0
VERTEX
  8
0
 10
0.0
 20
0.0
 30
0.0
 70
128
 71
29
 72
30
 73
45
  0
VERTEX
  8
0
 10
0.0
 20
0.0
 30
0.0
 70
128
 71
30
 72
31
 73
44
  0
VERTEX
  8
0
 10
0.0
 20
0.0
 30
0.0
 70
128
 71
51
 72
47
 73
36
  0
VERTEX
  8
0
 10
0.0
 20
0.0
 30
0.0
 70
128
 71
36
 72
48
 73
50
  0
VERTEX
  8
0
 10
0.0
 20
0.0
 30
0.0
 70
128
 71
48
 72
49
 73
50
  0
VERTEX
  8
0
 10
0.0
 20
0.0
 30
0.0
 70
128
 71
40
 72
54
 73
53
  0
VERTEX
  8
0
 10
0.0
 20
0.0
 30
0.0
 70
128
 71
53
 72
39
 73
40
  0
VERTEX
  8
0
 10
0.0
 20
0.0
 30
0.0
 70
128
 71
42
 72
56
 73
41
  0
VERTEX
  8
0
 10
0.0
 20
0.0
 30
0.0
 70
128
 71
56
 72
39
 73
32
  0
VERTEX
  8
0
 10
0.0
 20
0.0
 30
0.0
 70
128
 71
42
 72
55
 73
56
  0
VERTEX
  8
0
 10
0.0
 20
0.0
 30
0.0
 70
128
 71
55
 72
43
 73
56
  0
VERTEX
  8
0
 10
0.0
 20
0.0
 30
0.0
 70
128
 71
65
 72
57
 73
78
  0
VERTEX
  8
0
 10
0.0
 20
0.0
 30
0.0
 70
128
 71
57
 72
73
 73
78
  0
VERTEX
  8
0
 10
0.0
 20
0.0
 30
0.0
 70
128
 71
73
 72
74
 73
68
  0
VERTEX
  8
0
 10
0.0
 20
0.0
 30
0.0
 70
128
 71
76
 72
63
 73
79
  0
VERTEX
  8
0
 10
0.0
 20
0.0
 30
0.0
 70
128
 71
79
 72
64
 73
60
  0
VERTEX
  8
0
 10
0.0
 20
0.0
 30
0.0
 70
128
 71
64
 72
77
 73
60
  0
VERTEX
  8
0
 10
0.0
 20
0.0
 30
0.0
 70
128
 71
82
 72
69
 73
80
  0
VERTEX
  8
0
 10
0.0
 20
0.0
 30
0.0
 70
128
 71
80
 72
81
 73
82
  0
VERTEX
  8
0
 10
0.0
 20
0.0
 30
0.0
 70
128
 71
72
 72
71
 73
83
  0
VERTEX
  8
0
 10
0.0
 20
0.0
 30
0.0
 70
128
 71
71
 72
81
 73
58
  0
VERTEX
  8
0
 10
0.0
 20
0.0
 30
0.0
 70
128
 71
72
 72
70
 73
71
  0
VERTEX
  8
0
 10
0.0
 20
0.0
 30
0.0
 70
128
 71
70
 72
84
 73
71
  0
VERTEX
  8
0
 10
0.0
 20
0.0
 30
0.0
 70
128
 71
89
 72
85
 73
88
  0
VERTEX
  8
0
 10
0.0
 20
0.0
 30
0.0
 70
128
 71
85
 72
86
 73
88
  0
VERTEX
  8
0
 10
0.0
 20
0.0
 30
0.0
 70
128
 71
86
 72
87
 73
103
  0
VERTEX
  8
0
 10
0.0
 20
0.0
 30
0.0
 70
128
 71
91
 72
96
 73
102
  0
VERTEX
  8
0
 10
0.0
 20
0.0
 30
0.0
 70
128
 71
102
 72
97
 73
99
  0
VERTEX
  8
0
 10
0.0
 20
0.0
 30
0.0
 70
128
 71
97
 72
98
 73
99
  0
VERTEX
  8
0
 10
0.0
 20
0.0
 30
0.0
 70
128
 71
111
 72
104
 73
105
  0
VERTEX
  8
0
 10
0.0
 20
0.0
 30
0.0
 70
128
 71
105
 72
106
 73
111
  0
VERTEX
  8
0
 10
0.0
 20
0.0
 30
0.0
 70
128
 71
110
 72
107
 73
109
  0
VERTEX
  8
0
 10
0.0
 20
0.0
 30
0.0
 70
128
 71
107
 72
106
 73
108
  0
VERTEX
  8
0
 10
0.0
 20
0.0
 30
0.0
 70
128
 71
110
 72
95
 73
107
  0
VERTEX
  8
0
 10
0.0
 20
0.0
 30
0.0
 70
128
 71
95
 72
94
 73
107
  0
SEQEND
  8
0
  0
ENDSEC
  0
EOF
