  0
SECTION
  2
HEADER
  9
$ACADVER
  1
AC1009
  9
$INSBASE
 10
0.0
 20
0.0
 30
0.0
  9
$EXTMIN
 10
0.0
 20
0.0
 30
0.0
  9
$EXTMAX
 10
0.0
 20
0.0
 30
0.0
  0
ENDSEC
  0
SECTION
  2
TABLES
  0
TABLE
  2
VPORT
 70
1
  0
VPORT
  2
*ACTIVE
 70
0
 10
0.0
 20
0.0
 11
1.0
 21
1.0
 12
-5.0
 22
1.0
 13
0.0
 23
0.0
 14
0.1
 24
0.1
 15
0.1
 25
0.1
 16
0.0
 26
0.0
 36
1.0
 17
0.0
 27
0.0
 37
0.0
 40
10.0
 41
1.0
 42
50.0
 43
0.0
 44
0.0
 50
0.0
 51
0.0
 71
0
 72
100
 73
1
 74
1
 75
0
 76
0
 77
0
 78
0
  0
ENDTAB
  0
TABLE
  2
LTYPE
 70
8
  0
LTYPE
  2
CONTINUOUS
 70
0
  3
Solid line
 72
65
 73
0
 40
0.0
  0
LTYPE
  2
DOT
 70
0
  3
. . . . . . .
 72
65
 73
2
 40
0.25
 49
0.0
 49
-0.25
  0
LTYPE
  2
DASHED
 70
0
  3
__ __ __ __ __
 72
65
 73
2
 40
0.8
 49
0.5
 49
-0.3
  0
LTYPE
  2
DASHDOT
 70
0
  3
__ . __ . __ .
 72
65
 73
4
 40
1.0
 49
0.5
 49
-0.25
 49
0.0
 49
-0.25
  0
LTYPE
  2
DIVIDE
 70
0
  3
____ . . ____ . . 
 72
65
 73
6
 40
1.25
 49
0.5
 49
-0.25
 49
0.0
 49
-0.25
 49
0.0
 49
-0.25
  0
LTYPE
  2
BORDER
 70
0
  3
__ __ . __ __ . 
 72
65
 73
6
 40
1.75
 49
0.5
 49
-0.25
 49
0.5
 49
-0.25
 49
0.0
 49
-0.25
  0
LTYPE
  2
HIDDEN
 70
0
  3
__ __ __ __ __
 72
65
 73
2
 40
0.4
 49
0.25
 49
-0.25
  0
LTYPE
  2
CENTER
 70
0
  3
____ _ ____ _ __
 72
65
 73
4
 40
2.0
 49
1.25
 49
-0.25
 49
0.25
 49
-0.25
  0
ENDTAB
  0
TABLE
  2
LAYER
 70
1
  0
LAYER
  2
PYDXF
 70
64
 62
7
  6
continuous
  0
ENDTAB
  0
TABLE
  2
STYLE
 70
1
  0
STYLE
  2
STANDARD
 70
0
 40
0
 41
1.0
 50
0.0
 71
0
 42
1
 3
ARIAL.TTF
 4

  0
ENDTAB
  0
TABLE
  2
VIEW
 70
1
  0
VIEW
  2
BF_TOPVIEW
 70
0
 40
120.0
 10
0.0
 20
0.0
 41
200.0
 11
0.0
 21
0.0
 31
1.0
 12
0.0
 22
0.0
 32
0.0
 42
50.0
 43
0.0
 44
0.0
 50
0.0
 71
0
  0
ENDTAB
  0
ENDSEC
  0
SECTION
  2
BLOCKS
  0
ENDSEC
  0
SECTION
  2
ENTITIES
  0
POLYLINE
  8
0
 70
64
 66
1
 10
0.0
 20
0.0
 30
0.0
 71
30
 72
30
  0
VERTEX
  8
0
 10
0.16408412158489227
 20
3.075655460357666
 30
2.6999995708465576
 70
192
  0
VERTEX
  8
0
 10
1.7006510496139526
 20
4.3558735847473145
 30
0.0
 70
192
  0
VERTEX
  8
0
 10
0.16408412158489227
 20
3.075655460357666
 30
0.0
 70
192
  0
VERTEX
  8
0
 10
2.0844130516052246
 20
0.7708041071891785
 30
0.0
 70
192
  0
VERTEX
  8
0
 10
3.620980978012085
 20
2.051023483276367
 30
0.0
 70
192
  0
VERTEX
  8
0
 10
2.0844130516052246
 20
0.7708041071891785
 30
2.6999995708465576
 70
192
  0
VERTEX
  8
0
 10
3.620980978012085
 20
2.051023483276367
 30
2.6999995708465576
 70
192
  0
VERTEX
  8
0
 10
3.2372171878814697
 20
5.636092185974121
 30
0.0
 70
192
  0
VERTEX
  8
0
 10
-1.2185527086257935
 20
4.735146522521973
 30
0.0
 70
192
  0
VERTEX
  8
0
 10
-1.2185527086257935
 20
4.735146522521973
 30
2.6999995708465576
 70
192
  0
VERTEX
  8
0
 10
5.157546520233154
 20
3.331242799758911
 30
2.6999995708465576
 70
192
  0
VERTEX
  8
0
 10
5.157546520233154
 20
3.331242799758911
 30
0.0
 70
192
  0
VERTEX
  8
0
 10
-1.8572697639465332
 20
1.3915259838104248
 30
0.0
 70
192
  0
VERTEX
  8
0
 10
0.06305928528308868
 20
-0.9133242964744568
 30
0.0
 70
192
  0
VERTEX
  8
0
 10
-3.2399070262908936
 20
3.0510175228118896
 30
0.0
 70
192
  0
VERTEX
  8
0
 10
1.7006510496139526
 20
4.3558735847473145
 30
2.6999995708465576
 70
192
  0
VERTEX
  8
0
 10
3.2372171878814697
 20
5.636092185974121
 30
2.6999995708465576
 70
192
  0
VERTEX
  8
0
 10
1.7006510496139526
 20
4.3558735847473145
 30
6.200000286102295
 70
192
  0
VERTEX
  8
0
 10
-1.2185527086257935
 20
4.735146522521973
 30
4.774999141693115
 70
192
  0
VERTEX
  8
0
 10
5.157546520233154
 20
3.331242799758911
 30
6.200000286102295
 70
192
  0
VERTEX
  8
0
 10
3.2372171878814697
 20
5.636092185974121
 30
6.200000286102295
 70
192
  0
VERTEX
  8
0
 10
2.0844130516052246
 20
0.7708041071891785
 30
4.774999141693115
 70
192
  0
VERTEX
  8
0
 10
0.16408412158489227
 20
3.075655460357666
 30
4.774999141693115
 70
192
  0
VERTEX
  8
0
 10
-1.8572697639465332
 20
1.3915259838104248
 30
4.774999141693115
 70
192
  0
VERTEX
  8
0
 10
0.06305928528308868
 20
-0.9133242964744568
 30
4.774999141693115
 70
192
  0
VERTEX
  8
0
 10
0.06305928528308868
 20
-0.9133242964744568
 30
2.6999995708465576
 70
192
  0
VERTEX
  8
0
 10
-1.8572697639465332
 20
1.3915259838104248
 30
2.6999995708465576
 70
192
  0
VERTEX
  8
0
 10
3.620980978012085
 20
2.051023483276367
 30
6.200000286102295
 70
192
  0
VERTEX
  8
0
 10
-3.2399070262908936
 20
3.0510175228118896
 30
2.6999995708465576
 70
192
  0
VERTEX
  8
0
 10
-3.2399070262908936
 20
3.0510175228118896
 30
4.774999141693115
 70
192
  0
VERTEX
  8
0
 10
0.0
 20
0.0
 30
0.0
 70
128
 71
3
 72
4
 73
5
 74
2
  0
VERTEX
  8
0
 10
0.0
 20
0.0
 30
0.0
 70
128
 71
1
 72
3
 73
2
 74
16
  0
VERTEX
  8
0
 10
0.0
 20
0.0
 30
0.0
 70
128
 71
12
 72
8
 73
2
 74
5
  0
VERTEX
  8
0
 10
0.0
 20
0.0
 30
0.0
 70
128
 71
4
 72
5
 73
7
 74
6
  0
VERTEX
  8
0
 10
0.0
 20
0.0
 30
0.0
 70
128
 71
3
 72
1
 73
6
 74
4
  0
VERTEX
  8
0
 10
0.0
 20
0.0
 30
0.0
 70
128
 71
14
 72
4
 73
3
 74
13
  0
VERTEX
  8
0
 10
0.0
 20
0.0
 30
0.0
 70
128
 71
6
 72
1
 73
16
 74
7
  0
VERTEX
  8
0
 10
0.0
 20
0.0
 30
0.0
 70
128
 71
8
 72
17
 73
16
 74
2
  0
VERTEX
  8
0
 10
0.0
 20
0.0
 30
0.0
 70
128
 71
1
 72
10
 73
9
 74
3
  0
VERTEX
  8
0
 10
0.0
 20
0.0
 30
0.0
 70
128
 71
11
 72
12
 73
5
 74
7
  0
VERTEX
  8
0
 10
0.0
 20
0.0
 30
0.0
 70
128
 71
12
 72
11
 73
17
 74
8
  0
VERTEX
  8
0
 10
0.0
 20
0.0
 30
0.0
 70
128
 71
4
 72
6
 73
26
 74
14
  0
VERTEX
  8
0
 10
0.0
 20
0.0
 30
0.0
 70
128
 71
1
 72
23
 73
22
 74
6
  0
VERTEX
  8
0
 10
0.0
 20
0.0
 30
0.0
 70
128
 71
26
 72
14
 73
13
 74
27
  0
VERTEX
  8
0
 10
0.0
 20
0.0
 30
0.0
 70
128
 71
9
 72
15
 73
13
 74
3
  0
VERTEX
  8
0
 10
0.0
 20
0.0
 30
0.0
 70
128
 71
17
 72
11
 73
7
 74
16
  0
VERTEX
  8
0
 10
0.0
 20
0.0
 30
0.0
 70
128
 71
16
 72
18
 73
28
 74
7
  0
VERTEX
  8
0
 10
0.0
 20
0.0
 30
0.0
 70
128
 71
16
 72
18
 73
21
 74
17
  0
VERTEX
  8
0
 10
0.0
 20
0.0
 30
0.0
 70
128
 71
9
 72
15
 73
29
 74
10
  0
VERTEX
  8
0
 10
0.0
 20
0.0
 30
0.0
 70
128
 71
23
 72
1
 73
10
 74
19
  0
VERTEX
  8
0
 10
0.0
 20
0.0
 30
0.0
 70
128
 71
7
 72
11
 73
20
 74
28
  0
VERTEX
  8
0
 10
0.0
 20
0.0
 30
0.0
 70
128
 71
11
 72
20
 73
21
 74
17
  0
VERTEX
  8
0
 10
0.0
 20
0.0
 30
0.0
 70
128
 71
26
 72
6
 73
22
 74
25
  0
VERTEX
  8
0
 10
0.0
 20
0.0
 30
0.0
 70
128
 71
22
 72
25
 73
24
 74
23
  0
VERTEX
  8
0
 10
0.0
 20
0.0
 30
0.0
 70
128
 71
25
 72
26
 73
27
 74
24
  0
VERTEX
  8
0
 10
0.0
 20
0.0
 30
0.0
 70
128
 71
15
 72
29
 73
27
 74
13
  0
VERTEX
  8
0
 10
0.0
 20
0.0
 30
0.0
 70
128
 71
21
 72
20
 73
28
 74
18
  0
VERTEX
  8
0
 10
0.0
 20
0.0
 30
0.0
 70
128
 71
29
 72
30
 73
19
 74
10
  0
VERTEX
  8
0
 10
0.0
 20
0.0
 30
0.0
 70
128
 71
30
 72
19
 73
23
 74
24
  0
VERTEX
  8
0
 10
0.0
 20
0.0
 30
0.0
 70
128
 71
29
 72
30
 73
24
 74
27
  0
SEQEND
  8
0
  0
ENDSEC
  0
EOF
