<?xml version="1.0" encoding="UTF-8" standalone="no"?>
<!-- Created with Inkscape (http://www.inkscape.org/) -->

<svg
   xmlns:dc="http://purl.org/dc/elements/1.1/"
   xmlns:cc="http://creativecommons.org/ns#"
   xmlns:rdf="http://www.w3.org/1999/02/22-rdf-syntax-ns#"
   xmlns:svg="http://www.w3.org/2000/svg"
   xmlns="http://www.w3.org/2000/svg"
   xmlns:sodipodi="http://sodipodi.sourceforge.net/DTD/sodipodi-0.dtd"
   xmlns:inkscape="http://www.inkscape.org/namespaces/inkscape"
   width="744.09448"
   height="1052.3622"
   id="svg2"
   version="1.1"
   inkscape:version="0.48.1 r9760"
   sodipodi:docname="street.svg">
  <defs
     id="defs4" />
  <sodipodi:namedview
     id="base"
     pagecolor="#ffffff"
     bordercolor="#666666"
     borderopacity="1.0"
     inkscape:pageopacity="0.0"
     inkscape:pageshadow="2"
     inkscape:zoom="0.35824168"
     inkscape:cx="342.09888"
     inkscape:cy="-194.16453"
     inkscape:document-units="cm"
     inkscape:current-layer="layer1"
     showgrid="true"
     units="cm"
     inkscape:window-width="1400"
     inkscape:window-height="975"
     inkscape:window-x="0"
     inkscape:window-y="25"
     inkscape:window-maximized="1"
     showguides="true"
     inkscape:guide-bbox="true">
    <inkscape:grid
       type="xygrid"
       id="grid2985"
       empspacing="5"
       visible="true"
       enabled="true"
       snapvisiblegridlinesonly="true"
       units="cm"
       spacingx="0.25cm"
       spacingy="0.25cm" />
  </sodipodi:namedview>
  <metadata
     id="metadata7">
    <rdf:RDF>
      <cc:Work
         rdf:about="">
        <dc:format>image/svg+xml</dc:format>
        <dc:type
           rdf:resource="http://purl.org/dc/dcmitype/StillImage" />
        <dc:title />
      </cc:Work>
    </rdf:RDF>
  </metadata>
  <g
     inkscape:label="Layer 1"
     inkscape:groupmode="layer"
     id="layer1"
     transform="translate(0,0.00130762)">
    <path
       sodipodi:nodetypes="ccccc"
       inkscape:connector-curvature="0"
       id="path3781-4"
       d="M 1009.8425,1459.8412 1328.7402,1052.3609 992.12597,848.6207 752.95275,1132.0853 z"
       style="fill:#a9e1ab;fill-opacity:1;stroke:#000000;stroke-width:10.62992096;stroke-linecap:butt;stroke-linejoin:miter;stroke-miterlimit:4;stroke-opacity:1;stroke-dasharray:none" />
    <g
       id="g8800">
      <path
         sodipodi:nodetypes="ccccc"
         transform="translate(0,-0.00130762)"
         inkscape:connector-curvature="0"
         id="path3781"
         d="M 992.12598,848.62203 655.51181,644.88187 496.06299,804.33069 752.95276,1132.0866 z"
         style="fill:#e1aaa9;fill-opacity:1;stroke:#000000;stroke-width:10.62992095999999975;stroke-linecap:butt;stroke-linejoin:miter;stroke-miterlimit:4;stroke-opacity:1;stroke-dasharray:none" />
      <path
         transform="translate(0,-0.00130762)"
         inkscape:connector-curvature="0"
         id="path2987"
         d="M 0,1052.3622 496.06299,556.29919 -35.433071,237.40155 -389.76378,627.16533 z"
         style="fill:#dfbcd2;stroke:#000000;stroke-width:10.62992125999999971;stroke-linecap:butt;stroke-linejoin:miter;stroke-opacity:1;stroke-miterlimit:4;stroke-dasharray:none;fill-opacity:1" />
      <text
         transform="translate(0,-0.00130762)"
         sodipodi:linespacing="125%"
         id="text3776"
         y="642.24023"
         x="-103.03556"
         style="font-size:40px;font-style:normal;font-weight:normal;line-height:125%;letter-spacing:0px;word-spacing:0px;fill:#000000;fill-opacity:1;stroke:none;font-family:Sans"
         xml:space="preserve"><tspan
           y="642.24023"
           x="-103.03556"
           id="tspan3778"
           sodipodi:role="line">evolve1</tspan></text>
      <path
         transform="translate(0,-0.00130762)"
         inkscape:connector-curvature="0"
         id="path3780"
         d="M -177.16535,1229.5275 0,1052.3622 -389.76378,627.16533 -566.92913,822.04722 z"
         style="fill:#c6bcdf;stroke:#000000;stroke-width:10.62992125999999971;stroke-linecap:butt;stroke-linejoin:miter;stroke-opacity:1;stroke-miterlimit:4;stroke-dasharray:none;fill-opacity:1" />
      <text
         transform="translate(0,-0.00130762)"
         sodipodi:linespacing="125%"
         id="text3782"
         y="906.90021"
         x="-375.77676"
         style="font-size:40px;font-style:normal;font-weight:normal;line-height:125%;letter-spacing:0px;word-spacing:0px;fill:#000000;fill-opacity:1;stroke:none;font-family:Sans"
         xml:space="preserve"><tspan
           y="906.90021"
           x="-375.77676"
           id="tspan3784"
           sodipodi:role="line">evolve2</tspan></text>
      <path
         transform="translate(0,-0.00130762)"
         inkscape:connector-curvature="0"
         id="path3786"
         d="M -354.33071,1406.6929 -177.16535,1229.5275 -566.92913,822.04722 -779.52756,1070.0787 z"
         style="fill:#bcdfce;fill-opacity:1;stroke:#000000;stroke-width:10.62992096;stroke-linecap:butt;stroke-linejoin:miter;stroke-miterlimit:4;stroke-opacity:1;stroke-dasharray:none"
         sodipodi:nodetypes="ccccc" />
      <text
         transform="translate(0,-0.00130762)"
         sodipodi:linespacing="125%"
         id="text3788"
         y="1119.0323"
         x="-529.31995"
         style="font-size:40px;font-style:normal;font-weight:normal;line-height:125%;letter-spacing:0px;word-spacing:0px;fill:#000000;fill-opacity:1;stroke:none;font-family:Sans"
         xml:space="preserve"><tspan
           y="1119.0323"
           x="-529.31995"
           id="tspan3790"
           sodipodi:role="line">evolve3</tspan></text>
      <path
         transform="translate(0,-0.00130762)"
         inkscape:connector-curvature="0"
         id="path3792"
         d="m -566.92913,1619.2913 212.59842,-212.5984 -425.19685,-336.6142 -212.59842,248.0315 z"
         style="fill:#dadfbc;fill-opacity:1;stroke:#000000;stroke-width:10.62992096;stroke-linecap:butt;stroke-linejoin:miter;stroke-miterlimit:4;stroke-opacity:1;stroke-dasharray:none"
         sodipodi:nodetypes="ccccc" />
      <text
         transform="translate(0,-0.00130762)"
         sodipodi:linespacing="125%"
         id="text3794"
         y="1326.6479"
         x="-777.14288"
         style="font-size:40px;font-style:normal;font-weight:normal;line-height:125%;letter-spacing:0px;word-spacing:0px;fill:#000000;fill-opacity:1;stroke:none;font-family:Sans"
         xml:space="preserve"><tspan
           y="1326.6479"
           x="-777.14288"
           id="tspan3796"
           sodipodi:role="line">evolve4</tspan></text>
      <path
         sodipodi:nodetypes="ccccc"
         transform="translate(0,-0.00130762)"
         inkscape:connector-curvature="0"
         id="path3798"
         d="m -407.48031,1725.5905 301.1811,212.5985 230.31496,-248.0315 -248.0315,-265.7481 z"
         style="fill:#bcd1df;stroke:#000000;stroke-width:10.62992126;stroke-linecap:butt;stroke-linejoin:miter;stroke-miterlimit:4;stroke-opacity:1;stroke-dasharray:none;fill-opacity:1" />
      <path
         sodipodi:nodetypes="ccccc"
         inkscape:connector-curvature="0"
         id="path3800"
         d="M -53.149606,1353.542 318.89764,1761.0223 602.3622,1530.7073 177.16535,1123.227 z"
         style="fill:#dfd4bc;stroke:#000000;stroke-width:10.62992095999999975;stroke-linecap:butt;stroke-linejoin:miter;stroke-miterlimit:4;stroke-opacity:1;stroke-dasharray:none;fill-opacity:1" />
      <text
         transform="translate(0,-0.00130762)"
         sodipodi:linespacing="125%"
         id="text3802"
         y="1698.0765"
         x="-257.14285"
         style="font-size:40px;font-style:normal;font-weight:normal;line-height:125%;letter-spacing:0px;word-spacing:0px;fill:#000000;fill-opacity:1;stroke:none;font-family:Sans"
         xml:space="preserve"><tspan
           y="1698.0765"
           x="-257.14285"
           id="tspan3804"
           sodipodi:role="line">evolve5</tspan></text>
      <text
         transform="translate(0,-0.00130762)"
         sodipodi:linespacing="125%"
         id="text3806"
         y="1420.9336"
         x="137.14285"
         style="font-size:40px;font-style:normal;font-weight:normal;line-height:125%;letter-spacing:0px;word-spacing:0px;fill:#000000;fill-opacity:1;stroke:none;font-family:Sans"
         xml:space="preserve"><tspan
           y="1420.9336"
           x="137.14285"
           id="tspan3808"
           sodipodi:role="line">evolve6</tspan></text>
      <path
         sodipodi:nodetypes="ccccc"
         transform="translate(0,-0.00130762)"
         inkscape:connector-curvature="0"
         id="path3001"
         d="M -106.29921,1938.189 372.04724,2274.8031 513.77953,2097.6378 124.01575,1690.1575 z"
         style="fill:#e1a9b6;fill-opacity:1;stroke:#000000;stroke-width:10.62992096;stroke-linecap:butt;stroke-linejoin:miter;stroke-miterlimit:4;stroke-opacity:1;stroke-dasharray:none" />
      <text
         transform="translate(0,-0.00130762)"
         sodipodi:linespacing="125%"
         id="text3771"
         y="1985.743"
         x="129.29953"
         style="font-size:40px;font-style:normal;font-weight:normal;line-height:125%;letter-spacing:0px;word-spacing:0px;fill:#000000;fill-opacity:1;stroke:none;font-family:Sans"
         xml:space="preserve"><tspan
           y="1985.743"
           x="129.29953"
           id="tspan3773"
           sodipodi:role="line">evolve7</tspan></text>
      <path
         sodipodi:nodetypes="ccccc"
         transform="translate(0,-0.00130762)"
         inkscape:connector-curvature="0"
         id="path3775"
         d="m 318.89764,1761.0236 248.03149,265.748 442.91337,-566.9291 -124.01573,-159.4488 z"
         style="fill:#aea9e1;fill-opacity:1;stroke:#000000;stroke-width:10.62992095999999975;stroke-linecap:butt;stroke-linejoin:miter;stroke-miterlimit:4;stroke-opacity:1;stroke-dasharray:none" />
      <text
         transform="translate(0,-0.00130762)"
         sodipodi:linespacing="125%"
         id="text3777"
         y="1755.2194"
         x="485.71429"
         style="font-size:40px;font-style:normal;font-weight:normal;line-height:125%;letter-spacing:0px;word-spacing:0px;fill:#000000;fill-opacity:1;stroke:none;font-family:Sans"
         xml:space="preserve"><tspan
           y="1755.2194"
           x="485.71429"
           id="tspan3779"
           sodipodi:role="line">evolve8</tspan></text>
      <path
         sodipodi:nodetypes="ccccc"
         transform="translate(0,-0.00130762)"
         inkscape:connector-curvature="0"
         id="path3783"
         d="M 496.06299,804.33069 177.16535,1123.2283 602.3622,1530.7086 885.82677,1300.3937 z"
         style="fill:#dfe1a9;fill-opacity:1;stroke:#000000;stroke-width:10.62992096;stroke-linecap:butt;stroke-linejoin:miter;stroke-miterlimit:4;stroke-opacity:1;stroke-dasharray:none" />
      <text
         transform="translate(0,-0.00130762)"
         sodipodi:linespacing="125%"
         id="text3785"
         y="1115.2194"
         x="954.28571"
         style="font-size:40px;font-style:normal;font-weight:normal;line-height:125%;letter-spacing:0px;word-spacing:0px;fill:#000000;fill-opacity:1;stroke:none;font-family:Sans"
         xml:space="preserve"><tspan
           y="1115.2194"
           x="954.28571"
           id="tspan3787"
           sodipodi:role="line">evolve9</tspan></text>
      <text
         transform="translate(0,-0.00130762)"
         sodipodi:linespacing="125%"
         id="text3789"
         y="1200.9336"
         x="417.14285"
         style="font-size:40px;font-style:normal;font-weight:normal;line-height:125%;letter-spacing:0px;word-spacing:0px;fill:#000000;fill-opacity:1;stroke:none;font-family:Sans"
         xml:space="preserve"><tspan
           y="1200.9336"
           x="417.14285"
           id="tspan3791"
           sodipodi:role="line">evolvea</tspan></text>
      <text
         sodipodi:linespacing="125%"
         id="text3789-3"
         y="890.89294"
         x="638.59955"
         style="font-size:40px;font-style:normal;font-weight:normal;line-height:125%;letter-spacing:0px;word-spacing:0px;fill:#000000;fill-opacity:1;stroke:none;font-family:Sans"
         xml:space="preserve"><tspan
           y="890.89294"
           x="638.59955"
           id="tspan3791-2"
           sodipodi:role="line">evolveb</tspan></text>
    </g>
  </g>
</svg>
