  0
SECTION
  2
HEADER
  9
$ACADVER
  1
AC1009
  9
$INSBASE
 10
0.0
 20
0.0
 30
0.0
  9
$EXTMIN
 10
-44.9041508710801125
 20
-27.6857654232758286
 30
0.0
  9
$EXTMAX
 10
58.1772177731414004
 20
61.498334755526507
 30
6.0
  9
$LIMMIN
 10
0.0
 20
0.0
  9
$LIMMAX
 10
420.0
 20
297.0
  9
$ORTHOMODE
 70
     0
  9
$REGENMODE
 70
     1
  9
$FILLMODE
 70
     1
  9
$QTEXTMODE
 70
     0
  9
$MIRRTEXT
 70
     0
  9
$DRAGMODE
 70
     2
  9
$LTSCALE
 40
1.0
  9
$OSMODE
 70
    43
  9
$ATTMODE
 70
     1
  9
$TEXTSIZE
 40
2.5
  9
$TRACEWID
 40
1.0
  9
$TEXTSTYLE
  7
STANDARD
  9
$CLAYER
  8
0
  9
$CELTYPE
  6
BYLAYER
  9
$CECOLOR
 62
   256
  9
$DIMSCALE
 40
1.0
  9
$DIMASZ
 40
2.5
  9
$DIMEXO
 40
0.625
  9
$DIMDLI
 40
3.75
  9
$DIMRND
 40
0.0
  9
$DIMDLE
 40
0.0
  9
$DIMEXE
 40
1.25
  9
$DIMTP
 40
0.0
  9
$DIMTM
 40
0.0
  9
$DIMTXT
 40
2.5
  9
$DIMCEN
 40
2.5
  9
$DIMTSZ
 40
0.0
  9
$DIMTOL
 70
     0
  9
$DIMLIM
 70
     0
  9
$DIMTIH
 70
     0
  9
$DIMTOH
 70
     0
  9
$DIMSE1
 70
     0
  9
$DIMSE2
 70
     0
  9
$DIMTAD
 70
     1
  9
$DIMZIN
 70
     8
  9
$DIMBLK
  1

  9
$DIMASO
 70
     1
  9
$DIMSHO
 70
     1
  9
$DIMPOST
  1

  9
$DIMAPOST
  1

  9
$DIMALT
 70
     0
  9
$DIMALTD
 70
     3
  9
$DIMALTF
 40
0.03937007874016
  9
$DIMLFAC
 40
1.0
  9
$DIMTOFL
 70
     1
  9
$DIMTVP
 40
0.0
  9
$DIMTIX
 70
     0
  9
$DIMSOXD
 70
     0
  9
$DIMSAH
 70
     0
  9
$DIMBLK1
  1

  9
$DIMBLK2
  1

  9
$DIMSTYLE
  2
ISO-25
  9
$DIMCLRD
 70
     0
  9
$DIMCLRE
 70
     0
  9
$DIMCLRT
 70
     0
  9
$DIMTFAC
 40
1.0
  9
$DIMGAP
 40
0.625
  9
$LUNITS
 70
     2
  9
$LUPREC
 70
     4
  9
$SKETCHINC
 40
1.0
  9
$FILLETRAD
 40
0.0
  9
$AUNITS
 70
     0
  9
$AUPREC
 70
     0
  9
$MENU
  1
.
  9
$ELEVATION
 40
0.0
  9
$PELEVATION
 40
0.0
  9
$THICKNESS
 40
0.0
  9
$LIMCHECK
 70
     0
  9
$BLIPMODE
 70
     0
  9
$CHAMFERA
 40
0.0
  9
$CHAMFERB
 40
0.0
  9
$SKPOLY
 70
     0
  9
$TDCREATE
 40
2458889.9304861109703779
  9
$TDUPDATE
 40
2458908.6911458331160247
  9
$TDINDWG
 40
0.029837963
  9
$TDUSRTIMER
 40
0.029837963
  9
$USRTIMER
 70
     1
  9
$ANGBASE
 50
0.0
  9
$ANGDIR
 70
     0
  9
$PDMODE
 70
     0
  9
$PDSIZE
 40
0.0
  9
$PLINEWID
 40
0.0
  9
$COORDS
 70
     1
  9
$SPLFRAME
 70
     0
  9
$SPLINETYPE
 70
     6
  9
$SPLINESEGS
 70
     8
  9
$ATTDIA
 70
     0
  9
$ATTREQ
 70
     1
  9
$HANDLING
 70
     1
  9
$HANDSEED
  5
854
  9
$SURFTAB1
 70
     6
  9
$SURFTAB2
 70
     6
  9
$SURFTYPE
 70
     6
  9
$SURFU
 70
     6
  9
$SURFV
 70
     6
  9
$UCSNAME
  2

  9
$UCSORG
 10
0.0
 20
0.0
 30
0.0
  9
$UCSXDIR
 10
1.0
 20
0.0
 30
0.0
  9
$UCSYDIR
 10
0.0
 20
1.0
 30
0.0
  9
$PUCSNAME
  2

  9
$PUCSORG
 10
0.0
 20
0.0
 30
0.0
  9
$PUCSXDIR
 10
1.0
 20
0.0
 30
0.0
  9
$PUCSYDIR
 10
0.0
 20
1.0
 30
0.0
  9
$USERI1
 70
     0
  9
$USERI2
 70
     0
  9
$USERI3
 70
     0
  9
$USERI4
 70
     0
  9
$USERI5
 70
     0
  9
$USERR1
 40
0.0
  9
$USERR2
 40
0.0
  9
$USERR3
 40
0.0
  9
$USERR4
 40
0.0
  9
$USERR5
 40
0.0
  9
$WORLDVIEW
 70
     1
  9
$SHADEDGE
 70
     3
  9
$SHADEDIF
 70
    70
  9
$TILEMODE
 70
     1
  9
$MAXACTVP
 70
    64
  9
$PLIMCHECK
 70
     0
  9
$PEXTMIN
 10
0.0
 20
0.0
 30
0.0
  9
$PEXTMAX
 10
0.0
 20
0.0
 30
0.0
  9
$PLIMMIN
 10
0.0
 20
0.0
  9
$PLIMMAX
 10
12.0
 20
9.0
  9
$UNITMODE
 70
     0
  9
$VISRETAIN
 70
     1
  9
$PLINEGEN
 70
     0
  9
$PSLTSCALE
 70
     1
  0
ENDSEC
  0
SECTION
  2
TABLES
  0
TABLE
  2
VPORT
 70
     1
  0
VPORT
  2
*ACTIVE
 70
     0
 10
0.0
 20
0.0
 11
1.0
 21
1.0
 12
17.0121479552092403
 22
7.6859898486583509
 13
0.0
 23
0.0
 14
10.0
 24
10.0
 15
10.0
 25
10.0
 16
0.0
 26
0.0
 36
1.0
 17
-10.3756145041785803
 27
9.2202948174669945
 37
-0.9899743287845947
 40
89.7866954502807459
 41
1.772266065388951
 42
50.0
 43
0.0
 44
0.0
 50
0.0
 51
0.0
 71
     0
 72
  1000
 73
     1
 74
     3
 75
     0
 76
     1
 77
     0
 78
     0
  0
ENDTAB
  0
TABLE
  2
LTYPE
 70
     2
  0
LTYPE
  2
CONTINUOUS
 70
     0
  3
Solid line
 72
    65
 73
     0
 40
0.0
  0
ENDTAB
  0
TABLE
  2
LAYER
 70
     1
  0
LAYER
  2
0
 70
     0
 62
     7
  6
CONTINUOUS
  0
ENDTAB
  0
TABLE
  2
STYLE
 70
     2
  0
STYLE
  2
STANDARD
 70
     0
 40
0.0
 41
1.0
 50
0.0
 71
     0
 42
2.5
  3
txt
  4

  0
STYLE
  2
ANNOTATIVE
 70
     0
 40
0.0
 41
1.0
 50
0.0
 71
     0
 42
2.5
  3
txt
  4

  0
ENDTAB
  0
TABLE
  2
VIEW
 70
     0
  0
ENDTAB
  0
TABLE
  2
UCS
 70
     0
  0
ENDTAB
  0
TABLE
  2
APPID
 70
     9
  0
APPID
  2
ACAD
 70
     0
  0
APPID
  2
ACADANNOTATIVE
 70
     0
  0
APPID
  2
ACAD_PSEXT
 70
     0
  0
APPID
  2
ACADANNOPO
 70
     0
  0
APPID
  2
ACAD_DSTYLE_DIMJAG
 70
     0
  0
APPID
  2
ACAD_DSTYLE_DIMTALN
 70
     0
  0
APPID
  2
ACAD_MLEADERVER
 70
     0
  0
APPID
  2
ACAD_NAV_VCDISPLAY
 70
     0
  0
APPID
  2
ACAD_EXEMPT_FROM_CAD_STANDARDS
 70
     0
  0
ENDTAB
  0
TABLE
  2
DIMSTYLE
 70
     4
  0
DIMSTYLE
  2
STANDARD
 70
     0
  3

  4

  5

  6

  7

 40
1.0
 41
0.18
 42
0.0625
 43
0.38
 44
0.18
 45
0.0
 46
0.0
 47
0.0
 48
0.0
140
0.18
141
0.09
142
0.0
143
25.3999999999999986
144
1.0
145
0.0
146
1.0
147
0.09
 71
     0
 72
     0
 73
     1
 74
     1
 75
     0
 76
     0
 77
     0
 78
     0
170
     0
171
     2
172
     0
173
     0
174
     0
175
     0
176
     0
177
     0
178
     0
  0
DIMSTYLE
  2
ANNOTATIVE
 70
     0
  3

  4

  5

  6

  7

 40
0.0
 41
2.5
 42
0.625
 43
3.75
 44
1.25
 45
0.0
 46
0.0
 47
0.0
 48
0.0
140
2.5
141
2.5
142
0.0
143
0.03937007874016
144
1.0
145
0.0
146
1.0
147
0.625
 71
     0
 72
     0
 73
     0
 74
     0
 75
     0
 76
     0
 77
     1
 78
     8
170
     0
171
     3
172
     1
173
     0
174
     0
175
     0
176
     0
177
     0
178
     0
  0
DIMSTYLE
  2
ISO-25
 70
     0
  3

  4

  5

  6

  7

 40
1.0
 41
2.5
 42
0.625
 43
3.75
 44
1.25
 45
0.0
 46
0.0
 47
0.0
 48
0.0
140
2.5
141
2.5
142
0.0
143
0.03937007874016
144
1.0
145
0.0
146
1.0
147
0.625
 71
     0
 72
     0
 73
     0
 74
     0
 75
     0
 76
     0
 77
     1
 78
     8
170
     0
171
     3
172
     1
173
     0
174
     0
175
     0
176
     0
177
     0
178
     0
  0
ENDTAB
  0
ENDSEC
  0
SECTION
  2
BLOCKS
  0
BLOCK
  8
0
  2
$MODEL_SPACE
 70
     0
 10
0.0
 20
0.0
 30
0.0
  3
$MODEL_SPACE
  1

  0
ENDBLK
  5
782
  8
0
  0
BLOCK
 67
     1
  8
0
  2
$PAPER_SPACE
 70
     0
 10
0.0
 20
0.0
 30
0.0
  3
$PAPER_SPACE
  1

  0
ENDBLK
  5
77E
 67
     1
  8
0
  0
ENDSEC
  0
SECTION
  2
ENTITIES
  0
LINE
  5
79A
  8
0
 39
6.0
 10
-25.3178020872729483
 20
6.2647984333446942
 30
0.0
 11
-22.2114993417793904
 21
-7.6702618050922089
 31
0.0
  0
LINE
  5
79B
  8
0
 39
6.0
 10
28.8822282487230595
 20
1.5206090370650771
 30
0.0
 11
17.7864974608157915
 21
-2.6668511501735281
 31
0.0
  0
LINE
  5
79D
  8
0
 39
6.0
 10
-19.5826049570813083
 20
-8.8277978656482503
 30
0.0
 11
-18.2139748123940386
 21
-16.3271970587121906
 31
0.0
  0
LINE
  5
79E
  8
0
 39
6.0
 10
-15.95366612551393
 20
24.1232329907297895
 30
0.0
 11
-6.1589950242268108
 21
27.4582418415867693
 31
0.0
  0
LINE
  5
7A0
  8
0
 39
6.0
 10
13.7109735784076694
 20
32.6000512299188117
 30
0.0
 11
21.0632715637024113
 21
34.4409054569774327
 31
0.0
  0
LINE
  5
7A1
  8
0
 39
6.0
 10
-15.95366612551393
 20
24.1232329907297895
 30
0.0
 11
-22.4934764344475298
 21
41.3071321255064206
 31
0.0
  0
LINE
  5
7A2
  8
0
 39
4.0
 10
-24.1873614223534616
 20
40.5373309579344081
 30
0.0
 11
-17.8618506870609792
 21
23.4634394186357014
 31
0.0
  0
LINE
  5
7A3
  8
0
 39
4.0
 10
-17.8618506870609792
 20
23.4634394186357014
 30
0.0
 11
-25.4171062931812912
 21
21.7373712884120209
 31
0.0
  0
LINE
  5
7A4
  8
0
 39
6.0
 10
-25.3178020872729483
 20
6.2647984333446942
 30
0.0
 11
-29.0264942521160414
 21
18.9166435868301583
 31
0.0
  0
LINE
  5
7A6
  8
0
 39
4.0
 10
-25.4171062931812912
 20
21.7373712884120209
 30
0.0
 11
-34.5927828701960323
 21
19.8828331391907085
 31
0.0
  0
LINE
  5
7A7
  8
0
 39
6.0
 10
21.0632715637024113
 20
34.4409054569774327
 30
0.0
 11
14.3779457077338595
 21
54.7301708477691875
 31
0.0
  0
LINE
  5
7A8
  8
0
 39
3.5
 10
24.5616257845938399
 20
33.9875347930370708
 30
0.0
 11
28.0133269693780491
 21
22.5129586152357
 31
0.0
  0
LINE
  5
7A9
  8
0
 39
3.5
 10
28.0133269693780491
 20
22.5129586152357
 30
0.0
 11
32.3822757490968129
 21
6.5833460490111557
 31
0.0
  0
LINE
  5
7AA
  8
0
 39
3.5
 10
32.3822757490968129
 20
6.5833460490111557
 30
0.0
 11
41.7987343509406983
 21
8.9580805585528722
 31
0.0
  0
LINE
  5
7AB
  8
0
 39
6.0
 10
8.6603862833293306
 20
-21.7983961382816496
 30
0.0
 11
4.6302375666220996
 21
-5.057014059942218
 31
0.0
  0
LINE
  5
7AC
  8
0
 39
6.0
 10
17.7864974608157915
 20
-2.666851150173529
 30
0.0
 11
20.2581199072813796
 21
-10.5054261558501008
 31
0.0
  0
LINE
  5
7AD
  8
0
 39
6.0
 10
20.2581199072813796
 20
-10.5054261558501008
 30
0.0
 11
8.4304312312882246
 21
-13.5031022001048697
 31
0.0
  0
LINE
  5
7AE
  8
0
 39
6.0
 10
8.4304312312882246
 20
-13.5031022001048697
 30
0.0
 11
10.5571869876941395
 21
-23.7809215403844689
 31
0.0
  0
LINE
  5
7AF
  8
0
 39
6.0
 10
10.5571869876941395
 20
-23.7809215403844689
 30
0.0
 11
22.1123413802015598
 21
-21.9967711397176302
 31
0.0
  0
LINE
  5
7B1
  8
0
 39
6.0
 10
-18.2139748123940386
 20
-16.3271970587121906
 30
0.0
 11
-16.7185910893766696
 21
-27.6857654232758286
 31
0.0
  0
LINE
  5
7B2
  8
0
 39
3.5
 10
16.5448375031287718
 20
55.5838647641797934
 30
0.0
 11
26.3293006982871312
 21
58.7997353839992911
 31
0.0
  0
LINE
  5
7B3
  8
0
 39
3.5
 10
34.0436628285360712
 20
61.498334755526507
 30
0.0
 11
38.2956957349666709
 21
52.7294110590039011
 31
0.0
  0
LINE
  5
7B4
  8
0
 39
6.0
 10
45.1449011639742821
 20
5.5400924660062723
 30
0.0
 11
52.6137580956133206
 21
6.6073347110595364
 31
0.0
  0
LINE
  5
7B6
  8
0
 39
6.0
 10
49.9726705850330291
 20
-17.6297424296693812
 30
0.0
 11
58.1772177731414004
 21
-15.8213957309655502
 31
0.0
  0
LINE
  5
7B7
  8
0
 39
6.0
 10
-14.23670589591927
 20
45.2494554840401904
 30
0.0
 11
-22.4934764344475298
 21
41.3071321255064206
 31
0.0
  0
LINE
  5
7B8
  8
0
 39
4.0
 10
-34.2788101248147612
 20
36.2269375368975375
 30
0.0
 11
-44.9041508710801125
 21
33.6385662620572319
 31
0.0
  0
LINE
  5
7B9
  8
0
 39
4.0
 10
-44.9041508710801125
 20
33.6385662620572319
 30
0.0
 11
-43.8433252809883172
 21
19.4945065533376614
 31
0.0
  0
LINE
  5
7BA
  8
0
 39
6.0
 10
-41.8434105614287475
 20
2.551023392345857
 30
0.0
 11
-39.8767545940967167
 21
-9.8568614525088378
 31
0.0
  0
LINE
  5
7BC
  8
0
 39
6.0
 10
-22.2114993417793904
 20
-7.6702618050922089
 30
0.0
 11
-20.1954686571123183
 21
-20.9464934323186789
 31
0.0
  0
LINE
  5
7BE
  8
0
 39
6.0
 10
-37.9265238145000012
 20
-24.6977334575038903
 30
0.0
 11
-39.8767545940967167
 21
-9.8568614525088378
 31
0.0
  0
LINE
  5
7C5
  8
0
 39
6.0
 10
-41.8434105614287475
 20
2.551023392345857
 30
0.0
 11
-44.2001884245707686
 21
15.8707098040457097
 31
0.0
  0
LINE
  5
7C6
  8
0
 39
6.0
 10
-44.2001884245707686
 20
15.8707098040457097
 30
0.0
 11
-35.6146055078117882
 21
17.5996259667517307
 31
0.0
  0
LINE
  5
7C7
  8
0
 39
6.0
 10
-35.6146055078117882
 20
17.5996259667517307
 30
0.0
 11
-29.0264942521160414
 21
18.9166435868301583
 31
0.0
  0
LINE
  5
7C8
  8
0
 39
6.0
 10
-37.9265238145000012
 20
-24.6977334575038903
 30
0.0
 11
-30.0880527237376505
 21
-23.4721199802894382
 31
0.0
  0
LINE
  5
7C9
  8
0
 39
6.0
 10
-30.0880527237376505
 20
-23.4721199802894382
 30
0.0
 11
-20.1954686571123183
 21
-20.9464934323186789
 31
0.0
  0
LINE
  5
7CF
  8
0
 39
6.0
 10
28.8822282487230595
 20
1.5206090370650771
 30
0.0
 11
35.8516727585649519
 21
3.5539351220926809
 31
0.0
  0
LINE
  5
7D0
  8
0
 39
6.0
 10
35.8516727585649519
 20
3.5539351220926809
 30
0.0
 11
45.1449011639742821
 21
5.5400924660062723
 31
0.0
  0
LINE
  5
7D1
  8
0
 39
6.0
 10
49.9726705850330291
 20
-17.6297424296693812
 30
0.0
 11
40.5132759374563634
 21
-19.3563078344064401
 31
0.0
  0
LINE
  5
7D2
  8
0
 39
6.0
 10
40.5132759374563634
 20
-19.3563078344064401
 30
0.0
 11
33.2796623235385027
 21
-20.1524249653542817
 31
0.0
  0
LINE
  5
7D3
  8
0
 39
6.0
 10
33.2796623235385027
 20
-20.1524249653542817
 30
0.0
 11
22.1123413802015598
 21
-21.9967711397176302
 31
0.0
  0
LINE
  5
7DE
  8
0
 39
6.0
 10
58.1772177731414004
 20
-15.8213957309655502
 30
0.0
 11
56.2168594331620781
 21
-5.1625477492256664
 31
0.0
  0
LINE
  5
7DF
  8
0
 39
6.0
 10
56.2168594331620781
 20
-5.1625477492256664
 30
0.0
 11
52.6137580956133206
 21
6.6073347110595364
 31
0.0
  0
LINE
  5
7E0
  8
0
 39
6.0
 10
8.6603862833293306
 20
-21.7983961382816496
 30
0.0
 11
-1.5125010373863239
 21
-24.0668545798944393
 31
0.0
  0
LINE
  5
7E1
  8
0
 39
6.0
 10
-1.5125010373863239
 20
-24.0668545798944393
 30
0.0
 11
-16.7185910893766696
 21
-27.6857654232758286
 31
0.0
  0
LINE
  5
7E2
  8
0
 39
6.0
 10
4.6302375666221014
 20
-5.0570140599422251
 30
0.0
 11
-5.7699560702293597
 21
-5.4621724726593603
 31
0.0
  0
LINE
  5
7E3
  8
0
 39
6.0
 10
-5.7699560702293597
 20
-5.4621724726593603
 30
0.0
 11
-19.5826049570813083
 21
-8.8277978656482503
 31
0.0
  0
LINE
  5
7F0
  8
0
 39
6.0
 10
3.301239176094668
 20
30.7697126372461902
 30
0.0
 11
-6.1589950242268161
 21
27.4582418415867693
 31
0.0
  0
LINE
  5
7F1
  8
0
 39
6.0
 10
3.301239176094668
 20
30.7697126372461902
 30
0.0
 11
13.7109735784076694
 21
32.6000512299188117
 31
0.0
  0
LINE
  5
7F2
  8
0
 39
4.0
 10
-34.5927828701960323
 20
19.8828331391907085
 30
0.0
 11
-43.8433252809883172
 21
19.4945065533376614
 31
0.0
  0
LINE
  5
7F3
  8
0
 39
4.0
 10
-34.2788101248147612
 20
36.2269375368975375
 30
0.0
 11
-24.1873614223534616
 21
40.5373309579344081
 31
0.0
  0
LINE
  5
7F4
  8
0
 39
3.5
 10
24.5616257845938399
 20
33.9875347930370708
 30
0.0
 11
19.1343247875355509
 21
46.8341479701916725
 31
0.0
  0
LINE
  5
7F5
  8
0
 39
3.5
 10
19.1343247875355509
 20
46.8341479701916725
 30
0.0
 11
16.5448375031287718
 21
55.5838647641797934
 31
0.0
  0
LINE
  5
7F6
  8
0
 39
6.0
 10
-14.23670589591927
 20
45.2494554840401904
 30
0.0
 11
-3.2873571250585201
 21
49.4133114886525391
 31
0.0
  0
LINE
  5
7F7
  8
0
 39
6.0
 10
-3.2873571250585201
 20
49.4133114886525391
 30
0.0
 11
6.2237445874091
 21
52.45724374818559
 31
0.0
  0
LINE
  5
7F8
  8
0
 39
6.0
 10
6.2237445874091
 20
52.45724374818559
 30
0.0
 11
14.3779457077338595
 21
54.7301708477691875
 31
0.0
  0
LINE
  5
7F9
  8
0
 39
3.5
 10
26.3293006982871312
 20
58.7997353839992911
 30
0.0
 11
34.0436628285360712
 21
61.498334755526507
 31
0.0
  0
LINE
  5
7FA
  8
0
 39
3.5
 10
41.7987343509406983
 20
8.9580805585528722
 30
0.0
 11
51.2151929527845979
 21
11.3328150680945807
 31
0.0
  0
LINE
  5
7FB
  8
0
 39
3.5
 10
38.2956957349666709
 20
52.7294110590039011
 30
0.0
 11
42.9663382928724715
 21
39.1487541574782085
 31
0.0
  0
LINE
  5
7FC
  8
0
 39
3.5
 10
42.9663382928724715
 20
39.1487541574782085
 30
0.0
 11
46.0841012305876276
 21
26.3802970210290404
 31
0.0
  0
LINE
  5
7FD
  8
0
 39
3.5
 10
46.0841012305876276
 20
26.3802970210290404
 30
0.0
 11
51.2151929527845979
 21
11.3328150680945807
 31
0.0
  0
ENDSEC
  0
EOF
